<?xml version="1.0" encoding="utf-8"?>
<svg version="1.1" id="Capa_1" xmlns="http://www.w3.org/2000/svg" xmlns:xlink="http://www.w3.org/1999/xlink" x="0px" y="0px"
	 viewBox="0 0 40 40" style="enable-background:new 0 0 40 40;" xml:space="preserve">
<g id="ausente">
	<g>
	<path d="M2.1,3.9c11.3,11.4,22.7,22.8,34,34.3c1.8,1.8,4.4-1,2.7-2.7C27.5,24.1,16.1,12.6,4.8,1.2C3.1-0.5,0.3,2.1,2.1,3.9L2.1,3.9
		z"/>
	</g>
		<g>
	<path d="M36.1,1.1c-9,9-18.1,18.1-27.1,27.2c-2.6,2.6-5.2,5.2-7.8,7.8c-1.8,1.8,1,4.4,2.7,2.7c9-9,18.2-18.2,27.2-27.2
		c2.6-2.6,5.2-5.2,7.8-7.8C40.5,2.1,37.9-0.6,36.1,1.1L36.1,1.1z"/>
	</g>
</g>
</svg>
